{
    "type": "application",
    "source-directories": [
        "src"
    ],
    "elm-version": "0.19.0",
    "dependencies": {
        "direct": {
            "elm/browser": "1.0.0",
            "elm/core": "1.0.0",
            "elm/html": "1.0.0",
            "elm/json": "1.0.0",
            "elm/svg": "1.0.1"
        },
        "indirect": {
 
            "elm/time": "1.0.0",
            "elm/url": "1.0.0",
            "elm/virtual-dom": "1.0.2"
        }
    },
    "test-dependencies": {
        "direct": {},
        "indirect": {}
    }
}